League of Legends Diamond Ranked Games
…
print(minion)

## # A tibble: 213 x 2
##    minion_diff gold_Diff
##          <int>     <dbl>
##  1        -120    -5264 
##  2        -117    -9152 
##  3        -113    -5253 
##  4        -111    -7206 
##  5        -108    -2579 
##  6        -105     1031 
##  7        -104    -6973 
##  8        -101    -6404.
##  9         -99    -5826.
## 10         -98    -5219 
## # ... with 203 more rows
…
